
scoreboard objectives add wishlist.ttlMusic dummy

execute unless data storage wishlist:looping_music players \
        run data modify storage wishlist:looping_music players set value []

function looping_music:tick_1s
