
# looping_music:stop_1
$data modify storage wishlist:args args.track \
        set from storage wishlist:looping_music players[{id:$(id)}].track
function looping_music:stop_2 with storage wishlist:args args
