
# looping_music:stop
data modify storage wishlist:args args set value {}
execute store result storage wishlist:args args.id int 1 \
        run scoreboard players get @s wishlist.playerId
function looping_music:stop_1 with storage wishlist:args args
