
# looping_music:update_1
$data modify storage wishlist:args args \
        merge from storage wishlist:looping_music players[{id:$(id)}]
function looping_music:update_2 with storage wishlist:args args
