{
  "pools": [
    {
      "rolls": 1,
      "entries": [
        {
          "type": "minecraft:item",
          "name": "minecraft:egg",
          "functions": [
            {
              "function": "minecraft:set_name",
              "name": {
                "translate":"wishlist.magic_tools.summon_shepherd.name"
              }
            },
            {
              "function": "minecraft:set_lore",
              "replace": true,
              "lore": [
                {
                  "translate":"wishlist.magic_tools.summon_shepherd.lore",
                  "color": "gray",
                  "italic": false
                }
              ]
            },
            {
              "function": "minecraft:set_nbt",
              "tag": "{magic2:49,entityTag:{id:\"minecraft:villager\",NoAI:1b,Invulnerable:1b,VillagerData:{profession:\"minecraft:shepherd\"},Offers:{Recipes:[]}},Enchantments:[{id:unbreaking,lvl:1}],HideFlags:1b,CustomModelData:271828}"
            }
          ]
        }
      ]
    }
  ]
}


