{
  "display": {
    "icon": {
      "item": "minecraft:player_head",
      "nbt": "{SkullOwner:{Id:[I;-1771967249,-1745662167,-1513193077,2008369964],Properties:{textures:[{Value:\"eyJ0ZXh0dXJlcyI6eyJTS0lOIjp7InVybCI6Imh0dHA6Ly90ZXh0dXJlcy5taW5lY3JhZnQubmV0L3RleHR1cmUvMTI2ZWMxY2ExODViNDdhYWQzOWY5MzFkYjhiMGE4NTAwZGVkODZhMTI3YTIwNDg4NmVkNGIzNzgzYWQxNzc1YyJ9fX0=\"}]}}}"
    },
    "title": {"translate":"wishlist.advancements.get_paid_by_employee.title"},
    "description": {"translate":"wishlist.advancements.get_paid_by_employee.description"},
    "show_toast": true,
    "announce_to_chat": true
  },
  "parent": "wishlist:restock_employee",
  "criteria": {
    "trade_with_hired_trader": {
      "trigger": "minecraft:impossible"
    }
  }
}
