{
  "pools": [
    {
      "rolls": 1,
      "entries": [
        {
          "type": "minecraft:item",
          "name": "minecraft:iron_nugget",
          "functions": [
            {
              "function": "minecraft:set_name",
              "name": {
                "translate":"wishlist.dungeon_tools.old_coin.name",
                "italic": false
              }
            },
            {
              "function": "minecraft:set_nbt",
              "tag": "{CustomModelData:271830}"
            }
          ]
        }
      ]
    }
  ]
}



