{
  "display": {
    "icon": {
      "item": "minecraft:carrot_on_a_stick",
      "nbt": "{Enchantments:[{}],CustomModelData:271833}"
    },
    "title": {"translate":"wishlist.advancements.use_astrolabe.title"},
    "description": {"translate":"wishlist.advancements.use_astrolabe.description"},
    "show_toast": true,
    "announce_to_chat": true
  },
  "parent": "wishlist:root",
  "criteria": {
    "hold_astrolabe": {
      "trigger": "minecraft:impossible"
    }
  }
}




