# parkour:diagonal
data modify storage wishlist:args args set value {}
execute on passengers store result score yaw wishlist.vars run data get entity @s Rotation[0]
execute store result storage wishlist:args args.yaw int 0.044444 \
        run scoreboard players add yaw wishlist.vars 12
function parkour:diagonal_1 with storage wishlist:args args 
scoreboard players set go wishlist.vars 1




