
function wishlist:rand
data modify storage wishlist:args args set value {}
execute store result storage wishlist:args args.code int 1 \
        run scoreboard players get rand wishlist.vars
function lock:cut_1 with storage wishlist:args args
loot replace entity @s weapon.mainhand loot lock:key
playsound minecraft:block.grindstone.use player @a ~ ~ ~


