
# lock:lock_2
$data modify storage wishlist:args args set value { \
        lock: { \
                Tags:[wishlist.lock], \
                width:1.001, \
                height:$(height).001, \
        } \
}
data modify storage wishlist:args args.lock.Tags append from entity @s SelectedItem.tag.wishlist_magic.args.code
function lock:lock_3 with storage wishlist:args args

