# wishlist:restore_inventory
data modify storage wishlist:args args set value {}
execute store result storage wishlist:args args.id int 1 run scoreboard players get @s wishlist.playerId
data modify storage wishlist:args items set from entity @s Inventory
function wishlist:restore_inventory_1 with storage wishlist:args args

