# rotate_1.mcfunction

data modify storage wishlist:args elems append from storage wishlist:args elems[0]
data remove storage wishlist:args elems[0]
scoreboard players remove pivot wishlist.vars 1
function wishlist:rotate

