{
  "criteria": {
    "example": {
      "trigger": "minecraft:player_interacted_with_entity",
      "conditions": {
        "item": {
          "tag":"minecraft:music_discs"
        },
        "entity": {
          "type": "minecraft:interaction",
          "nbt": "{Tags:[wishlist.gramophone.empty]}"
        }
      }
    }
  },
  "rewards": {
    "function": "custom_discs:play_vanilla"
  }
}



