{
  "criteria": {
    "example": {
      "trigger": "minecraft:player_interacted_with_entity",
      "conditions": {
        "item": {
          "items":["minecraft:carrot_on_a_stick"],
          "nbt": "{wishlist:{music_disc:{}}}"
        },
        "entity": {
          "type": "minecraft:interaction",
          "nbt": "{Tags:[wishlist.gramophone.empty]}"
        }
      }
    }
  },
  "rewards": {
    "function": "custom_discs:play_custom"
  }
}


