{
  "criteria": {
    "example": {
      "trigger": "minecraft:player_interacted_with_entity",
      "conditions": {
        "item": {
          "items":["minecraft:iron_nugget"],
          "nbt": "{wishlist:{small_key:{}}}"
        },
        "entity": {
          "type": "minecraft:interaction",
          "nbt": "{Tags:[wishlist.dungeon.key_door]}"
        }
      }
    }
  },
  "rewards": {
    "function": "dungeons:use_small_key"
  }
}

