# bind.mcfunction - copy spell from nearest magic item

data modify storage wishlist:args tags append from entity @s Item.tag
particle minecraft:instant_effect ~ ~ ~ 0.1 0.1 0.1 0.005 10
playsound minecraft:block.anvil.use player @a ~ ~ ~
function wishlist:decrement_item_entity_count
