[
  {
    "function":"minecraft:set_nbt",
    "tag":"{CustomModelData:271828}",
    "conditions": [
      {
        "condition":"minecraft:entity_properties",
        "entity":"this",
        "predicate":{
          "equipment":{
            "mainhand":{
              "nbt":"{CustomModelData:271829}"
            }
          }
        }
      }
    ]
  },
  {
    "function":"minecraft:set_nbt",
    "tag":"{CustomModelData:271829}",
    "conditions": [
      {
        "condition":"minecraft:entity_properties",
        "entity":"this",
        "predicate":{
          "equipment":{
            "mainhand":{
              "nbt":"{CustomModelData:271828}"
            }
          }
        }
      }
    ]
  }
]

