{
  "display": {
    "icon": {
      "item": "minecraft:iron_nugget",
      "nbt": "{CustomModelData:271828}"
    },
    "title": {"translate":"wishlist.advancements.trigger_dungeon.title"},
    "description": {"translate":"wishlist.advancements.trigger_dungeon.description"},
    "show_toast": true,
    "announce_to_chat": true
  },
  "parent": "wishlist:root",
  "criteria": {
    "trade_with_hired_trader": {
      "trigger": "minecraft:impossible"
    }
  }
}

