
data modify storage wishlist:args args set value {}
execute store result storage wishlist:args args.team int 1 \
        run scoreboard players get @s wishlist.playerId
function better_nicks:trigger_1 with storage wishlist:args args
