{
  "display": {
    "icon": {
      "item": "minecraft:writable_book",
      "nbt": "{CustomModelData:271828}"
    },
    "title": {"translate":"wishlist.advancements.use_marker.title"},
    "description": {"translate":"wishlist.advancements.use_marker.description"},
    "show_toast": true,
    "announce_to_chat": true
  },
  "parent": "wishlist:root",
  "criteria": {
    "have_magic_egg": {
      "trigger": "minecraft:impossible"
    }
  }
}


