{
  "pools": [
    {
      "rolls": 1,
      "entries": [
        {
          "type": "minecraft:item",
          "name": "minecraft:carrot_on_a_stick",
          "functions": [
            {
              "function": "minecraft:set_name",
              "name": {
                "translate":"wishlist.magic_tools.noise_box.name",
                "color": "white",
                "italic": false
              }
            },
            {
              "function": "minecraft:set_nbt",
              "tag": "{CustomModelData:271828,wishlist_magic:{id:\"noise_box:toggle\",args:{}}}"
            }
          ]
        }
      ]
    }
  ]
}
