

fill ^ ^ ^1 ^ ^ ^1 minecraft:air replace minecraft:light
tag @s remove wishlist.modern_light
data modify storage wishlist:args args set value {}
data modify storage wishlist:args args.id set from entity @s Tags[0]
function modern_lights:drop with storage wishlist:args args
kill @s
