{
  "condition": "minecraft:entity_properties",
  "entity": "this",
  "predicate": {
    "equipment": {
      "mainhand": {
        "items": [
          "minecraft:oak_sign"
        ],
        "nbt": "{CustomModelData:271834}"
      }
    }
  }
}

