{
  "display": {
    "icon": {
      "item": "minecraft:bundle",
      "nbt":"{CustomModelData:271828}"
    },
    "title": {"translate":"wishlist.advancements.receive_mail.title"},
    "description": {"translate":"wishlist.advancements.receive_mail.description"},
    "show_toast": true,
    "announce_to_chat": true
  },
  "parent": "wishlist:root",
  "criteria": {
    "barter_with_pillager": {
      "trigger": "impossible"
    }
  }
}

