# tick_2.mcfunction

function wishlist:rand
scoreboard players operation r wishlist.vars = rand wishlist.vars
scoreboard players operation r wishlist.vars /= 256 wishlist.vars
scoreboard players operation r wishlist.vars %= 16 wishlist.vars
scoreboard players remove x wishlist.vars 8
scoreboard players operation x wishlist.vars += r wishlist.vars
execute store result entity @s Pos[0] double 16 run scoreboard players get x wishlist.vars

function wishlist:rand
scoreboard players operation r wishlist.vars = rand wishlist.vars
scoreboard players operation r wishlist.vars /= 256 wishlist.vars
scoreboard players operation r wishlist.vars %= 16 wishlist.vars
scoreboard players remove z wishlist.vars 8
scoreboard players operation z wishlist.vars += r wishlist.vars
execute store result entity @s Pos[2] double 16 run scoreboard players get z wishlist.vars

execute at @s positioned ~ ~-128 ~ run function #wishlist:random_tick
kill @s


