{
  "pools": [
    {
      "rolls": 1,
      "entries": [
        {
          "type": "minecraft:item",
          "name": "minecraft:paper",
          "functions": [
            {
              "function": "minecraft:set_name",
              "name": {
                "translate":"grabeltone.items.banknote_256.name",
                "italic": false
              }
            },
            {
              "function": "minecraft:set_lore",
              "replace": true,
              "lore": [
                {
                  "translate":"grabeltone.items.banknote_256.lore.1",
                  "color": "gray",
                  "italic": false
                },
                {
                  "translate":"grabeltone.items.banknote_256.lore.2",
                  "color": "gray",
                  "italic": false
                }
              ]
            },
            {
              "function": "minecraft:set_nbt",
              "tag": "{CustomModelData:271834,wishlist:{currency:256}}"
            }
          ]
        }
      ]
    }
  ]
}

