[
  "",
  {
    "text":"Lock",
    "bold":true
  },
  "\n[",
  {
    "text":"1",
    "color":"blue",
    "clickEvent":{
      "action":"run_command",
      "value":"/trigger wishlist.popular_displays.trigger set 231"
    }
  },
  " ",
  {
    "text":"2",
    "color":"blue",
    "clickEvent":{
      "action":"run_command",
      "value":"/trigger wishlist.popular_displays.trigger set 233"
    }
  },
  " ",
  {
    "text":"4",
    "color":"blue",
    "clickEvent":{
      "action":"run_command",
      "value":"/trigger wishlist.popular_displays.trigger set 234"
    }
  },
  " ",
  {
    "text":"8",
    "color":"blue",
    "clickEvent":{
      "action":"run_command",
      "value":"/trigger wishlist.popular_displays.trigger set 235"
    }
  },
  " ",
  {
    "text":"S",
    "color":"blue",
    "clickEvent":{
      "action":"run_command",
      "value":"/trigger wishlist.popular_displays.trigger set 236"
    }
  },
  "] ",
  {
    "text":"lock",
    "hoverEvent":{
      "action":"show_text",
      "contents":"Lock displays"
    }
  },
  "\n[",
  {
    "text":"1",
    "color":"blue",
    "clickEvent":{
      "action":"run_command",
      "value":"/trigger wishlist.popular_displays.trigger set 241"
    }
  },
  " ",
  {
    "text":"2",
    "color":"blue",
    "clickEvent":{
      "action":"run_command",
      "value":"/trigger wishlist.popular_displays.trigger set 243"
    }
  },
  " ",
  {
    "text":"4",
    "color":"blue",
    "clickEvent":{
      "action":"run_command",
      "value":"/trigger wishlist.popular_displays.trigger set 244"
    }
  },
  " ",
  {
    "text":"8",
    "color":"blue",
    "clickEvent":{
      "action":"run_command",
      "value":"/trigger wishlist.popular_displays.trigger set 245"
    }
  },
  " ",
  {
    "text":"S",
    "color":"blue",
    "clickEvent":{
      "action":"run_command",
      "value":"/trigger wishlist.popular_displays.trigger set 246"
    }
  },
  "] ",
  {
    "text":"unlock",
    "hoverEvent":{
      "action":"show_text",
      "contents":"Unlock displays"
    }
  }
]
