[
  "",
  {
    "text":"Move",
    "bold":true
  },
  "\n[",
  {
    "text":"1",
    "color":"blue",
    "clickEvent":{
      "action":"run_command",
      "value":"/trigger wishlist.popular_displays.trigger set 251"
    }
  },
  " ",
  {
    "text":"2",
    "color":"blue",
    "clickEvent":{
      "action":"run_command",
      "value":"/trigger wishlist.popular_displays.trigger set 253"
    }
  },
  " ",
  {
    "text":"4",
    "color":"blue",
    "clickEvent":{
      "action":"run_command",
      "value":"/trigger wishlist.popular_displays.trigger set 254"
    }
  },
  " ",
  {
    "text":"8",
    "color":"blue",
    "clickEvent":{
      "action":"run_command",
      "value":"/trigger wishlist.popular_displays.trigger set 255"
    }
  },
  " ",
  {
    "text":"S",
    "color":"blue",
    "clickEvent":{
      "action":"run_command",
      "value":"/trigger wishlist.popular_displays.trigger set 256"
    }
  },
  "] ",
  {
    "text":"1/16",
    "hoverEvent":{
      "action":"show_text",
      "contents":"Move displays 1/16th of a block in the direction you are facing"
    }
  },
  "\n[",
  {
    "text":"1",
    "color":"blue",
    "clickEvent":{
      "action":"run_command",
      "value":"/trigger wishlist.popular_displays.trigger set 261"
    }
  },
  " ",
  {
    "text":"2",
    "color":"blue",
    "clickEvent":{
      "action":"run_command",
      "value":"/trigger wishlist.popular_displays.trigger set 263"
    }
  },
  " ",
  {
    "text":"4",
    "color":"blue",
    "clickEvent":{
      "action":"run_command",
      "value":"/trigger wishlist.popular_displays.trigger set 264"
    }
  },
  " ",
  {
    "text":"8",
    "color":"blue",
    "clickEvent":{
      "action":"run_command",
      "value":"/trigger wishlist.popular_displays.trigger set 265"
    }
  },
  " ",
  {
    "text":"S",
    "color":"blue",
    "clickEvent":{
      "action":"run_command",
      "value":"/trigger wishlist.popular_displays.trigger set 266"
    }
  },
  "] ",
  {
    "text":"1/8",
    "hoverEvent":{
      "action":"show_text",
      "contents":"Move displays 1/8th of a block in the direction you are facing"
    }
  },
  "\n[",
  {
    "text":"1",
    "color":"blue",
    "clickEvent":{
      "action":"run_command",
      "value":"/trigger wishlist.popular_displays.trigger set 271"
    }
  },
  " ",
  {
    "text":"2",
    "color":"blue",
    "clickEvent":{
      "action":"run_command",
      "value":"/trigger wishlist.popular_displays.trigger set 273"
    }
  },
  " ",
  {
    "text":"4",
    "color":"blue",
    "clickEvent":{
      "action":"run_command",
      "value":"/trigger wishlist.popular_displays.trigger set 274"
    }
  },
  " ",
  {
    "text":"8",
    "color":"blue",
    "clickEvent":{
      "action":"run_command",
      "value":"/trigger wishlist.popular_displays.trigger set 275"
    }
  },
  " ",
  {
    "text":"S",
    "color":"blue",
    "clickEvent":{
      "action":"run_command",
      "value":"/trigger wishlist.popular_displays.trigger set 276"
    }
  },
  "] ",
  {
    "text":"1/4",
    "hoverEvent":{
      "action":"show_text",
      "contents":"Move displays 1/4th of a block in the direction you are facing"
    }
  },
  "\n[",
  {
    "text":"1",
    "color":"blue",
    "clickEvent":{
      "action":"run_command",
      "value":"/trigger wishlist.popular_displays.trigger set 281"
    }
  },
  " ",
  {
    "text":"2",
    "color":"blue",
    "clickEvent":{
      "action":"run_command",
      "value":"/trigger wishlist.popular_displays.trigger set 283"
    }
  },
  " ",
  {
    "text":"4",
    "color":"blue",
    "clickEvent":{
      "action":"run_command",
      "value":"/trigger wishlist.popular_displays.trigger set 284"
    }
  },
  " ",
  {
    "text":"8",
    "color":"blue",
    "clickEvent":{
      "action":"run_command",
      "value":"/trigger wishlist.popular_displays.trigger set 285"
    }
  },
  " ",
  {
    "text":"S",
    "color":"blue",
    "clickEvent":{
      "action":"run_command",
      "value":"/trigger wishlist.popular_displays.trigger set 286"
    }
  },
  "] ",
  {
    "text":"1/2",
    "hoverEvent":{
      "action":"show_text",
      "contents":"Move displays 1/2nd of a block in the direction you are facing"
    }
  },
  "\n[",
  {
    "text":"1",
    "color":"blue",
    "clickEvent":{
      "action":"run_command",
      "value":"/trigger wishlist.popular_displays.trigger set 291"
    }
  },
  " ",
  {
    "text":"2",
    "color":"blue",
    "clickEvent":{
      "action":"run_command",
      "value":"/trigger wishlist.popular_displays.trigger set 293"
    }
  },
  " ",
  {
    "text":"4",
    "color":"blue",
    "clickEvent":{
      "action":"run_command",
      "value":"/trigger wishlist.popular_displays.trigger set 294"
    }
  },
  " ",
  {
    "text":"8",
    "color":"blue",
    "clickEvent":{
      "action":"run_command",
      "value":"/trigger wishlist.popular_displays.trigger set 295"
    }
  },
  " ",
  {
    "text":"S",
    "color":"blue",
    "clickEvent":{
      "action":"run_command",
      "value":"/trigger wishlist.popular_displays.trigger set 296"
    }
  },
  "] ",
  {
    "text":"1",
    "hoverEvent":{
      "action":"show_text",
      "contents":"Move displays 1 block in the direction you are facing"
    }
  },
  "\n[",
  {
    "text":"1",
    "color":"blue",
    "clickEvent":{
      "action":"run_command",
      "value":"/trigger wishlist.popular_displays.trigger set 211"
    }
  },
  " ",
  {
    "text":"2",
    "color":"blue",
    "clickEvent":{
      "action":"run_command",
      "value":"/trigger wishlist.popular_displays.trigger set 213"
    }
  },
  " ",
  {
    "text":"4",
    "color":"blue",
    "clickEvent":{
      "action":"run_command",
      "value":"/trigger wishlist.popular_displays.trigger set 214"
    }
  },
  " ",
  {
    "text":"8",
    "color":"blue",
    "clickEvent":{
      "action":"run_command",
      "value":"/trigger wishlist.popular_displays.trigger set 215"
    }
  },
  " ",
  {
    "text":"S",
    "color":"blue",
    "clickEvent":{
      "action":"run_command",
      "value":"/trigger wishlist.popular_displays.trigger set 216"
    }
  },
  "] ",
  {
    "text":"center",
    "hoverEvent":{
      "action":"show_text",
      "contents":"Place displays at the center of the block"
    }
  },
  "\n",
  {
    "text":"Rotate",
    "bold":true
  },
  "\n[",
  {
    "text":"1",
    "color":"blue",
    "clickEvent":{
      "action":"run_command",
      "value":"/trigger wishlist.popular_displays.trigger set 171"
    }
  },
  " ",
  {
    "text":"2",
    "color":"blue",
    "clickEvent":{
      "action":"run_command",
      "value":"/trigger wishlist.popular_displays.trigger set 173"
    }
  },
  " ",
  {
    "text":"4",
    "color":"blue",
    "clickEvent":{
      "action":"run_command",
      "value":"/trigger wishlist.popular_displays.trigger set 174"
    }
  },
  " ",
  {
    "text":"8",
    "color":"blue",
    "clickEvent":{
      "action":"run_command",
      "value":"/trigger wishlist.popular_displays.trigger set 175"
    }
  },
  " ",
  {
    "text":"S",
    "color":"blue",
    "clickEvent":{
      "action":"run_command",
      "value":"/trigger wishlist.popular_displays.trigger set 176"
    }
  },
  "] ",
  {
    "text":"+yaw",
    "hoverEvent":{
      "action":"show_text",
      "contents":"Rotate displays 22.5 degrees on the vertical axis"
    }
  },
  "\n[",
  {
    "text":"1",
    "color":"blue",
    "clickEvent":{
      "action":"run_command",
      "value":"/trigger wishlist.popular_displays.trigger set 181"
    }
  },
  " ",
  {
    "text":"2",
    "color":"blue",
    "clickEvent":{
      "action":"run_command",
      "value":"/trigger wishlist.popular_displays.trigger set 183"
    }
  },
  " ",
  {
    "text":"4",
    "color":"blue",
    "clickEvent":{
      "action":"run_command",
      "value":"/trigger wishlist.popular_displays.trigger set 184"
    }
  },
  " ",
  {
    "text":"8",
    "color":"blue",
    "clickEvent":{
      "action":"run_command",
      "value":"/trigger wishlist.popular_displays.trigger set 185"
    }
  },
  " ",
  {
    "text":"S",
    "color":"blue",
    "clickEvent":{
      "action":"run_command",
      "value":"/trigger wishlist.popular_displays.trigger set 186"
    }
  },
  "] ",
  {
    "text":"-yaw",
    "hoverEvent":{
      "action":"show_text",
      "contents":"Rotate displays -22.5 degrees on the vertical axis"
    }
  },
  "\n[",
  {
    "text":"1",
    "color":"blue",
    "clickEvent":{
      "action":"run_command",
      "value":"/trigger wishlist.popular_displays.trigger set 191"
    }
  },
  " ",
  {
    "text":"2",
    "color":"blue",
    "clickEvent":{
      "action":"run_command",
      "value":"/trigger wishlist.popular_displays.trigger set 193"
    }
  },
  " ",
  {
    "text":"4",
    "color":"blue",
    "clickEvent":{
      "action":"run_command",
      "value":"/trigger wishlist.popular_displays.trigger set 194"
    }
  },
  " ",
  {
    "text":"8",
    "color":"blue",
    "clickEvent":{
      "action":"run_command",
      "value":"/trigger wishlist.popular_displays.trigger set 195"
    }
  },
  " ",
  {
    "text":"S",
    "color":"blue",
    "clickEvent":{
      "action":"run_command",
      "value":"/trigger wishlist.popular_displays.trigger set 196"
    }
  },
  "] ",
  {
    "text":"+pitch",
    "hoverEvent":{
      "action":"show_text",
      "contents":"Rotate displays 22.5 degrees on the horizontal axis"
    }
  },
  "\n[",
  {
    "text":"1",
    "color":"blue",
    "clickEvent":{
      "action":"run_command",
      "value":"/trigger wishlist.popular_displays.trigger set 201"
    }
  },
  " ",
  {
    "text":"2",
    "color":"blue",
    "clickEvent":{
      "action":"run_command",
      "value":"/trigger wishlist.popular_displays.trigger set 203"
    }
  },
  " ",
  {
    "text":"4",
    "color":"blue",
    "clickEvent":{
      "action":"run_command",
      "value":"/trigger wishlist.popular_displays.trigger set 204"
    }
  },
  " ",
  {
    "text":"8",
    "color":"blue",
    "clickEvent":{
      "action":"run_command",
      "value":"/trigger wishlist.popular_displays.trigger set 205"
    }
  },
  " ",
  {
    "text":"S",
    "color":"blue",
    "clickEvent":{
      "action":"run_command",
      "value":"/trigger wishlist.popular_displays.trigger set 206"
    }
  },
  "] ",
  {
    "text":"-pitch",
    "hoverEvent":{
      "action":"show_text",
      "contents":"Rotate displays -22.5 degrees on the horizontal axis"
    }
  },
  "\n[",
  {
    "text":"1",
    "color":"blue",
    "clickEvent":{
      "action":"run_command",
      "value":"/trigger wishlist.popular_displays.trigger set 221"
    }
  },
  " ",
  {
    "text":"2",
    "color":"blue",
    "clickEvent":{
      "action":"run_command",
      "value":"/trigger wishlist.popular_displays.trigger set 223"
    }
  },
  " ",
  {
    "text":"4",
    "color":"blue",
    "clickEvent":{
      "action":"run_command",
      "value":"/trigger wishlist.popular_displays.trigger set 224"
    }
  },
  " ",
  {
    "text":"8",
    "color":"blue",
    "clickEvent":{
      "action":"run_command",
      "value":"/trigger wishlist.popular_displays.trigger set 225"
    }
  },
  " ",
  {
    "text":"S",
    "color":"blue",
    "clickEvent":{
      "action":"run_command",
      "value":"/trigger wishlist.popular_displays.trigger set 226"
    }
  },
  "] ",
  {
    "text":"center",
    "hoverEvent":{
      "action":"show_text",
      "contents":"Reset displays rotation to zero in all axes"
    }
  }
]
