{
  "pools": [
    {
      "rolls": 1,
      "entries": [
        {
          "type": "minecraft:item",
          "name": "minecraft:iron_nugget",
          "functions": [
            {
              "function": "minecraft:set_name",
              "name": {
                "translate":"wishlist.dungeon_tools.big_key.name",
                "italic": false
              }
            },
            {
              "function": "minecraft:set_lore",
              "replace": true,
              "lore": [
                {
                  "translate":"wishlist.dungeon_tools.big_key.lore",
                  "color": "gray",
                  "italic": false
                }
              ]
            },
            {
              "function": "minecraft:set_nbt",
              "tag": "{CustomModelData:271829,wishlist:{big_key:1b}}"
            }
          ]
        }
      ]
    }
  ]
}


