# load.mcfunction

data modify storage wishlist:args all_chatter append value \
        "What is a ministry, and what do they do with silly hats?"
data modify storage wishlist:args all_chatter append value \
        "I tried to actually wear a silly hat and I forgot something"

function millinery:tick
