
$data modify storage wishlist:args skip set value {dimension:"$(dimension)",x:$(x),y:$(y),z:$(z)}
execute store result storage wishlist:args skip.id int 1 \
        run scoreboard players get @s wishlist.playerId
function skip:skip with storage wishlist:args skip

