
execute unless function wishlist:consume_level \
        run return run title @s actionbar "You don't have enough levels"
function skip:record
function skip:make_coords_1 with storage wishlist:args skip


