
scoreboard players set go wishlist.vars 0
execute as @e[tag=wishlist.globe,sort=nearest,limit=1] \
        run function skip:map_1 with entity @s Passengers[0].item.tag.wishlist_globe
execute if score go wishlist.vars matches 0 \
        run return fail
function skip:map_2 with storage wishlist:args args



