
execute unless data storage wishlist:args book[0] run return 1
data modify storage wishlist:args args.item set from storage wishlist:args book[0]
function skip:unbind_2 with storage wishlist:args args
data remove storage wishlist:args book[0]
function skip:unbind_1

