# add_4.mcfunction

data modify storage wishlist:args elems set from storage wishlist:args all_chatter
function wishlist:rotate_random
data modify storage wishlist:args chatter set from storage wishlist:args elems[0]
function chatterbox:setup_with_text
