
execute store result storage wishlist:args args.id int 1 \
        run scoreboard players get @s wishlist.playerId
function multitudes:place_bait_1 with storage wishlist:args args

title @s actionbar { "translate": "Bait placed" }
