{
  "criteria": {
    "example": {
      "trigger": "minecraft:recipe_crafted",
      "conditions": {
        "recipe_id": "better_recipes:merge",
        "ingredients": [
          { "nbt": "{wishlist:{recipe:{id:\"dough\"}}}" },
          { "nbt": "{wishlist:{recipe:{id:\"cheese\"}}}" }
        ]
      }
    }
  },
  "rewards": {
    "function": "better_recipes:merge"
  }
}

