{
  "credit": "Made with Blockbench",
  "parent": "block/thin_block",
  "textures": {
    "0": "wishlist:block/cooking_sink",
    "1": "block/water_still",
    "particle": "wishlist:block/cooking_sink"
  },
  "elements": [
    {
      "from": [0, 0, 2],
      "to": [2, 14, 11],
      "faces": {
        "east": {"uv": [10.5, 9, 15, 16], "texture": "#0"},
        "west": {"uv": [1, 9, 5.5, 16], "texture": "#0", "cullface": "west"},
        "up": {"uv": [7, 1, 8, 5.5], "texture": "#0"},
        "down": {"uv": [15, 2, 16, 7], "texture": "#0", "cullface": "down"}
      }
    },
    {
      "from": [14, 0, 2],
      "to": [16, 14, 11],
      "faces": {
        "east": {"uv": [2, 9, 7, 16], "texture": "#0", "cullface": "east"},
        "west": {"uv": [9, 9, 14, 16], "texture": "#0"},
        "up": {"uv": [0, 1, 1, 5.5], "texture": "#0"},
        "down": {"uv": [8, 2, 9, 7], "texture": "#0", "cullface": "down"}
      }
    },
    {
      "from": [0, 0, 0],
      "to": [16, 14, 2],
      "faces": {
        "north": {"uv": [0, 9, 8, 16], "texture": "#0", "cullface": "north"},
        "east": {"uv": [7, 9, 8, 16], "texture": "#0", "cullface": "east"},
        "south": {"uv": [8, 9, 16, 16], "texture": "#0"},
        "west": {"uv": [0, 9, 1, 16], "texture": "#0", "cullface": "west"},
        "up": {"uv": [0, 0, 8, 1], "texture": "#0"},
        "down": {"uv": [8, 7, 16, 8], "texture": "#0", "cullface": "down"}
      }
    },
    {
      "from": [2, 7, 2],
      "to": [14, 10, 11],
      "faces": {
        "up": {"uv": [2, 4, 14, 14], "texture": "#1", "tintindex": 0},
        "down": {"uv": [9, 2, 15, 7], "texture": "#0", "cullface": "down"}
      }
    },
    {
      "from": [2, 0, 2],
      "to": [14, 7, 11],
      "faces": {
        "up": {"uv": [0.5, 1, 7, 5.5], "texture": "#0", "tintindex": 0},
        "down": {"uv": [9, 2, 15, 7], "texture": "#0", "cullface": "down"}
      }
    },
    {
      "from": [0, 0, 11],
      "to": [16, 14, 16],
      "faces": {
        "north": {"uv": [8, 9, 16, 16], "texture": "#0"},
        "east": {"uv": [0, 9, 2.5, 16], "texture": "#0", "cullface": "east"},
        "south": {"uv": [0, 9, 8, 16], "texture": "#0", "cullface": "south"},
        "west": {"uv": [5.5, 9, 8, 16], "texture": "#0", "cullface": "west"},
        "up": {"uv": [0, 5.5, 8, 8], "texture": "#0"},
        "down": {"uv": [8, 0, 16, 2], "texture": "#0", "cullface": "down"}
      }
    },
    {
      "from": [7, 14, 12],
      "to": [9, 18, 14],
      "faces": {
        "north": {"uv": [0, 0, 1, 2], "texture": "#0"},
        "east": {"uv": [0, 0, 1, 0.5], "texture": "#0"},
        "south": {"uv": [0, 0, 1, 2], "texture": "#0"},
        "west": {"uv": [0, 0, 1, 0.5], "texture": "#0"},
        "up": {"uv": [3.5, 6.5, 4.5, 7.5], "texture": "#0"},
        "down": {"uv": [0, 0, 1, 1], "texture": "#0"}
      }
    },
    {
      "from": [7, 17, 8],
      "to": [9, 18, 12],
      "faces": {
        "north": {"uv": [0, 0, 2, 1], "texture": "#0"},
        "east": {"uv": [0, 0, 4, 0.5], "texture": "#0"},
        "west": {"uv": [0, 0, 4, 0.5], "texture": "#0"},
        "up": {"uv": [3.5, 4.5, 4.5, 6.5], "texture": "#0"},
        "down": {"uv": [0, 0, 1, 2], "texture": "#0"}
      }
    }
  ]
}
