
data modify storage wishlist:args args set value {}
data modify storage wishlist:args args.id set from storage wishlist:args summon.id
data modify storage wishlist:args args.name set from storage wishlist:args summon.data.CustomName
function summon:lore_1 with storage wishlist:args args
