# report_trader.mcfunction

function wishlist:recall
execute store result score employer wishlist.vars \
        run data get storage wishlist:args memories.employer
execute if score employer wishlist.vars = @a[tag=wishlist.employer,limit=1] \
        wishlist.playerId run function hired_traders:report_trader_1
