# sync_money.mcfunction

data modify storage wishlist:args recipe set from entity @s Offers.Recipes[0]
function server_traders:sync_money_1
data modify entity @s Offers.Recipes[0].uses set value 0
execute store result entity @s Offers.Recipes[0].maxUses int 1 \
        run scoreboard players get maxUses wishlist.vars

data modify storage wishlist:args recipe set from entity @s Offers.Recipes[1]
function server_traders:sync_money_1
data modify entity @s Offers.Recipes[1].uses set value 0
execute store result entity @s Offers.Recipes[1].maxUses int 1 \
        run scoreboard players get maxUses wishlist.vars

data modify storage wishlist:args recipe set from entity @s Offers.Recipes[2]
function server_traders:sync_money_1
data modify entity @s Offers.Recipes[2].uses set value 0
execute store result entity @s Offers.Recipes[2].maxUses int 1 \
        run scoreboard players get maxUses wishlist.vars

data modify storage wishlist:args recipe set from entity @s Offers.Recipes[3]
function server_traders:sync_money_1
data modify entity @s Offers.Recipes[3].uses set value 0
execute store result entity @s Offers.Recipes[3].maxUses int 1 \
        run scoreboard players get maxUses wishlist.vars

data modify storage wishlist:args recipe set from entity @s Offers.Recipes[4]
function server_traders:sync_money_1
data modify entity @s Offers.Recipes[4].uses set value 0
execute store result entity @s Offers.Recipes[4].maxUses int 1 \
        run scoreboard players get maxUses wishlist.vars

data modify storage wishlist:args recipe set from entity @s Offers.Recipes[5]
function server_traders:sync_money_1
data modify entity @s Offers.Recipes[5].uses set value 0
execute store result entity @s Offers.Recipes[5].maxUses int 1 \
        run scoreboard players get maxUses wishlist.vars

data modify storage wishlist:args recipe set from entity @s Offers.Recipes[6]
function server_traders:sync_money_1
data modify entity @s Offers.Recipes[6].uses set value 0
execute store result entity @s Offers.Recipes[6].maxUses int 1 \
        run scoreboard players get maxUses wishlist.vars

data modify storage wishlist:args recipe set from entity @s Offers.Recipes[7]
function server_traders:sync_money_1
data modify entity @s Offers.Recipes[7].uses set value 0
execute store result entity @s Offers.Recipes[7].maxUses int 1 \
        run scoreboard players get maxUses wishlist.vars

data modify storage wishlist:args recipe set from entity @s Offers.Recipes[8]
function server_traders:sync_money_1
data modify entity @s Offers.Recipes[8].uses set value 0
execute store result entity @s Offers.Recipes[8].maxUses int 1 \
        run scoreboard players get maxUses wishlist.vars

