# update_trader.mcfunction

function server_traders:sync_money

data modify storage wishlist:args recipes set value []

data modify storage wishlist:args recipe set from storage wishlist:args empty_recipe
data modify storage wishlist:args recipe.buy set from block ~ ~-1 ~ Items[{Slot:0b}]
data modify storage wishlist:args recipe.buyB set from block ~ ~-1 ~ Items[{Slot:9b}]
data modify storage wishlist:args recipe.sell set from block ~ ~-1 ~ Items[{Slot:18b}]
data modify storage wishlist:args recipes append from storage wishlist:args recipe

data modify storage wishlist:args recipe set from storage wishlist:args empty_recipe
data modify storage wishlist:args recipe.buy set from block ~ ~-1 ~ Items[{Slot:1b}]
data modify storage wishlist:args recipe.buyB set from block ~ ~-1 ~ Items[{Slot:10b}]
data modify storage wishlist:args recipe.sell set from block ~ ~-1 ~ Items[{Slot:19b}]
data modify storage wishlist:args recipes append from storage wishlist:args recipe

data modify storage wishlist:args recipe set from storage wishlist:args empty_recipe
data modify storage wishlist:args recipe.buy set from block ~ ~-1 ~ Items[{Slot:2b}]
data modify storage wishlist:args recipe.buyB set from block ~ ~-1 ~ Items[{Slot:11b}]
data modify storage wishlist:args recipe.sell set from block ~ ~-1 ~ Items[{Slot:20b}]
data modify storage wishlist:args recipes append from storage wishlist:args recipe

data modify storage wishlist:args recipe set from storage wishlist:args empty_recipe
data modify storage wishlist:args recipe.buy set from block ~ ~-1 ~ Items[{Slot:3b}]
data modify storage wishlist:args recipe.buyB set from block ~ ~-1 ~ Items[{Slot:12b}]
data modify storage wishlist:args recipe.sell set from block ~ ~-1 ~ Items[{Slot:21b}]
data modify storage wishlist:args recipes append from storage wishlist:args recipe

data modify storage wishlist:args recipe set from storage wishlist:args empty_recipe
data modify storage wishlist:args recipe.buy set from block ~ ~-1 ~ Items[{Slot:4b}]
data modify storage wishlist:args recipe.buyB set from block ~ ~-1 ~ Items[{Slot:13b}]
data modify storage wishlist:args recipe.sell set from block ~ ~-1 ~ Items[{Slot:22b}]
data modify storage wishlist:args recipes append from storage wishlist:args recipe

data modify storage wishlist:args recipe set from storage wishlist:args empty_recipe
data modify storage wishlist:args recipe.buy set from block ~ ~-1 ~ Items[{Slot:5b}]
data modify storage wishlist:args recipe.buyB set from block ~ ~-1 ~ Items[{Slot:14b}]
data modify storage wishlist:args recipe.sell set from block ~ ~-1 ~ Items[{Slot:23b}]
data modify storage wishlist:args recipes append from storage wishlist:args recipe

data modify storage wishlist:args recipe set from storage wishlist:args empty_recipe
data modify storage wishlist:args recipe.buy set from block ~ ~-1 ~ Items[{Slot:6b}]
data modify storage wishlist:args recipe.buyB set from block ~ ~-1 ~ Items[{Slot:15b}]
data modify storage wishlist:args recipe.sell set from block ~ ~-1 ~ Items[{Slot:24b}]
data modify storage wishlist:args recipes append from storage wishlist:args recipe

data modify storage wishlist:args recipe set from storage wishlist:args empty_recipe
data modify storage wishlist:args recipe.buy set from block ~ ~-1 ~ Items[{Slot:7b}]
data modify storage wishlist:args recipe.buyB set from block ~ ~-1 ~ Items[{Slot:16b}]
data modify storage wishlist:args recipe.sell set from block ~ ~-1 ~ Items[{Slot:25b}]
data modify storage wishlist:args recipes append from storage wishlist:args recipe

data modify storage wishlist:args recipe set from storage wishlist:args empty_recipe
data modify storage wishlist:args recipe.buy set from block ~ ~-1 ~ Items[{Slot:8b}]
data modify storage wishlist:args recipe.buyB set from block ~ ~-1 ~ Items[{Slot:17b}]
data modify storage wishlist:args recipe.sell set from block ~ ~-1 ~ Items[{Slot:26b}]
data modify storage wishlist:args recipes append from storage wishlist:args recipe

data modify entity @s Offers.Recipes set from storage wishlist:args recipes

particle minecraft:happy_villager ~ ~1 ~ 0.2 1 0.2 0.5 10

function server_traders:sync_money
