{
  "pools": [
    {
      "rolls": 1,
      "entries": [
        {
          "type": "minecraft:item",
          "name": "minecraft:item_frame",
          "functions": [
            {
              "function": "minecraft:set_name",
              "name": {
                "translate": "Summon Grocer",
                "italic": false
              }
            },
            {
              "function": "minecraft:set_lore",
              "lore": [
                {
                  "text": "minecraft:villager",
                  "italic": false,
                  "color": "gray"
                }
              ]
            },
            {
              "function": "minecraft:set_nbt",
              "tag": "{CustomModelData:271870,EntityTag:{Item:{id:\"minecraft:item_frame\",Count:1b,tag:{wishlist_summon:{id:\"minecraft:villager\",data:{NoAI:1b,Invulnerable:1b,Tags:[wishlist.look_alive,traaa.custom_trader,traaa.grocer],ArmorItems:[{},{},{},{id:\"minecraft:stone_button\",Count:1b,tag:{CustomModelData:999999}}],ArmorDropChances:[0f,0f,0f,0f]}}}}}}"
            }
          ]
        }
      ]
    }
  ]
}

