{
  "criteria": {
    "example": {
      "trigger": "minecraft:changed_dimension",
      "conditions": {
        "to": "wishlist:sketch"
      }
    }
  },
  "rewards": {
    "function": "grabeltone:enter_sketch"
  }
}

