# generate_combination.mcfunction

function wishlist:rand
setblock 0 0 0 oak_sign
data modify block 0 0 0 front_text.messages[0] set value \
        '{"score":{"name":"rand","objective":"wishlist.vars"}}'
data modify storage wishlist:args combination set from block 0 0 0 front_text.messages[0]
setblock 0 0 0 air

