{
  "display": {
    "icon": {
      "item": "minecraft:carrot_on_a_stick",
      "nbt": "{CustomModelData:271832}"
    },
    "title": {"translate":"wishlist.advancements.lock_container.title"},
    "description": {"translate":"wishlist.advancements.lock_container.description"},
    "show_toast": true,
    "announce_to_chat": true
  },
  "parent": "wishlist:make_chest_key",
  "criteria": {
    "make_chest_key": {
      "trigger": "minecraft:impossible"
    }
  }
}


