
advancement revoke @s only magic:mainhand_bauble
function magic:use_magic_1 with entity @s SelectedItem.tag.wishlist_magic
item replace entity @s weapon.mainhand with air
title @s actionbar "Bauble broke!"

