
advancement revoke @s only magic:offhand_bauble
function magic:use_magic_1 with entity @s Inventory[{Slot:-106b}].tag.wishlist_magic
item replace entity @s weapon.offhand with air
title @s actionbar "Bauble broke!"
