{
  "condition": "minecraft:any_of",
  "terms": [
    {"condition":"minecraft:location_check","predicate":{"biome":"minecraft:swamp"}},
    {"condition":"minecraft:location_check","predicate":{"biome":"minecraft:mangrove_swamp"}}
  ]
}
