# load.mcfunction - initialize end_above

data modify storage wishlist:args all_chatter append value \
        "Didja know that there was a time no one knew where the End was?"
data modify storage wishlist:args all_chatter append value \
        "So… did you ever fall from heaven? and did it hurt? No, for real"

function end_above:tick


