
data modify storage wishlist:dungeon door set value { \
        id:"minecraft:marker", \
        y: 0, \
        data: { \
                Tags:[wishlist.dungeon.mob_door] \
        } \
}

function dungeons:add_door
