
#pick_up_pot_1
execute store result score when wishlist.vars run data get entity @s interaction.timestamp
execute store result score now wishlist.vars run time query gametime
execute unless score when wishlist.vars = now wishlist.vars run return fail
function dungeons:empty_pot
execute at @s run loot spawn ~ ~ ~ loot dungeons:pot
execute at @s run playsound minecraft:block.decorated_pot.break block @a ~ ~ ~
function wishlist:dismiss


