
execute unless data storage wishlist:dungeon pop[0] run return run kill @s
data modify storage wishlist:args stash set from storage wishlist:dungeon pop[0]
function stash:pop2
data remove storage wishlist:dungeon pop[0]
scoreboard players add count wishlist.vars 1
function dungeons:pop_1
