
execute unless data storage wishlist:dungeon blocks1[0] run return 0
function dungeons:pop_blocks_1 with storage wishlist:dungeon blocks1[0]
data remove storage wishlist:dungeon blocks1[0]
function dungeons:pop_blocks

