
$data modify storage wishlist:dungeon pop set from storage wishlist:dungeon rooms[{id:$(room)}].hostiles
$data modify storage wishlist:dungeon rooms[{id:$(room)}].hostiles set value []
function dungeons:pop
