
$data modify storage wishlist:dungeon pop set from storage wishlist:dungeon rooms[{id:$(room)}].loot
$data modify storage wishlist:dungeon rooms[{id:$(room)}].loot set value []
function dungeons:pop

