

$data modify storage wishlist:dungeon pop set from storage wishlist:dungeon rooms[{id:$(room)}].passives
$data modify storage wishlist:dungeon rooms[{id:$(room)}].passives set value []
function dungeons:pop
