
data modify storage wishlist:dungeon args set value {}
execute store result storage wishlist:dungeon args.d int 1 run scoreboard players get @s wishlist.dimension
execute store result storage wishlist:dungeon args.x int 1 run scoreboard players get @s wishlist.cx
execute store result storage wishlist:dungeon args.y int 1 run scoreboard players get @s wishlist.cy
execute store result storage wishlist:dungeon args.z int 1 run scoreboard players get @s wishlist.cz
function dungeons:room_args_1 with storage wishlist:dungeon args

