
function stash:stash
$data modify storage wishlist:dungeon rooms[{id:$(room)}].passives append from storage wishlist:args stash
function wishlist:dismiss
scoreboard players set done wishlist.vars 1

