
#unlock_1
execute store result score when wishlist.vars run data get entity @s interaction.timestamp
execute store result score now wishlist.vars run time query gametime
execute unless score when wishlist.vars = now wishlist.vars run return fail
function dungeons:unlock_2

