
data modify storage wishlist:dungeon args set value {}
execute store result storage wishlist:dungeon args.room int 1 \
        run scoreboard players get @s wishlist.currentRoom
function dungeons:update_room_1 with storage wishlist:dungeon args
