
advancement revoke @s only dungeons:use_small_key_on_key_door
function dungeons:unlock
execute unless score done wishlist.vars matches 0 \
        run item modify entity @s weapon.mainhand wishlist:consume_one

