{
  "parent": "minecraft:item/handheld",
  "textures": {
    "layer0": "minecraft:item/iron_hoe"
  },
  "overrides": [
    {"predicate": {"custom_model_data":271828}, "model": "wishlist:item/iron_dagger"}
  ]
}
