{
  "parent": "minecraft:item/generated",
  "textures": {
    "layer0": "minecraft:item/potion_overlay",
    "layer1": "minecraft:item/potion"
  },
  "overrides": [
          {"predicate": {"custom_model_data":271828}, "model": "grabeltone:item/beer"},
          {"predicate": {"custom_model_data":271829}, "model": "grabeltone:item/coffee"},
          {"predicate": {"custom_model_data":271830}, "model": "grabeltone:item/moonshine"},
          {"predicate": {"custom_model_data":271831}, "model": "grabeltone:item/ipecac"},
          {"predicate": {"custom_model_data":271832}, "model": "grabeltone:item/benzoin"},
          {"predicate": {"custom_model_data":271833}, "model": "wishlist:item/square_bottle"},
          {"predicate": {"custom_model_data":271834}, "model": "wishlist:item/round_bottle"},
          {"predicate": {"custom_model_data":271836}, "model": "wishlist:item/tall_glass"},
          {"predicate": {"custom_model_data":271837}, "model": "wishlist:item/wine_bottle"}
  ]
}



