{
  "parent": "minecraft:block/stone_button_inventory",
  "overrides": [
    {"predicate": {"custom_model_data":271828}, "model": "wishlist:block/villager_eyeshade"},
    {"predicate": {"custom_model_data":271829}, "model": "wishlist:block/villager_chef_hat"},
    {"predicate": {"custom_model_data":271830}, "model": "wishlist:block/villager_cap"},
    {"predicate": {"custom_model_data":271831}, "model": "wishlist:block/villager_bandana"},
    {"predicate": {"custom_model_data":272828}, "model": "wishlist:block/illager_eyeshade"},
    {"predicate": {"custom_model_data":272829}, "model": "wishlist:block/illager_chef_hat"},
    {"predicate": {"custom_model_data":272830}, "model": "wishlist:block/illager_cap"},
    {"predicate": {"custom_model_data":272831}, "model": "wishlist:block/illager_bandana"},
    {"predicate": {"custom_model_data":273828}, "model": "wishlist:block/player_eyeshade"},
    {"predicate": {"custom_model_data":273829}, "model": "wishlist:block/player_chef_hat"},
    {"predicate": {"custom_model_data":273830}, "model": "wishlist:block/player_cap"},
    {"predicate": {"custom_model_data":273831}, "model": "wishlist:block/player_bandana"},
    {"predicate": {"custom_model_data":888888}, "model": "wishlist:block/villager_head_overlay"},
    {"predicate": {"custom_model_data":999999}, "model": "wishlist:item/empty"}
  ]
}
