{
  "parent": "minecraft:item/generated",
  "textures": {
    "layer0": "minecraft:item/suspicious_stew"
  },
  "overrides": [
          {"predicate": {"custom_model_data":271828}, "model": "grabeltone:item/beer"},
          {"predicate": {"custom_model_data":271829}, "model": "grabeltone:item/coffee"},
          {"predicate": {"custom_model_data":271830}, "model": "grabeltone:item/moonshine"},
          {"predicate": {"custom_model_data":271831}, "model": "grabeltone:item/ipecac"},
          {"predicate": {"custom_model_data":271832}, "model": "grabeltone:item/benzoin"},
          {"predicate": {"custom_model_data":271833}, "model": "grabeltone:item/atropine"},
          {"predicate": {"custom_model_data":271834}, "model": "grabeltone:item/diazepam"},
          {"predicate": {"custom_model_data":271835}, "model": "grabeltone:item/noodles"},
          {"predicate": {"custom_model_data":271836}, "model": "grabeltone:item/iced_tea"},
          {"predicate": {"custom_model_data":271837}, "model": "grabeltone:item/wine"},
          {"predicate": {"custom_model_data":628318}, "model": "wishlist:item/bowl_of_white_chunks"},
          {"predicate": {"custom_model_data":628319}, "model": "wishlist:item/bowl_of_pale_chunks"},
          {"predicate": {"custom_model_data":628320}, "model": "wishlist:item/bowl_of_orange_chunks"},
          {"predicate": {"custom_model_data":628321}, "model": "wishlist:item/bowl_of_red_chunks"},
          {"predicate": {"custom_model_data":628322}, "model": "wishlist:item/bowl_of_brown_chunks"},
          {"predicate": {"custom_model_data":628323}, "model": "wishlist:item/bowl_of_black_chunks"},
          {"predicate": {"custom_model_data":628324}, "model": "wishlist:item/bowl_of_white_liquid"},
          {"predicate": {"custom_model_data":628325}, "model": "wishlist:item/bowl_of_pale_liquid"},
          {"predicate": {"custom_model_data":628326}, "model": "wishlist:item/bowl_of_orange_liquid"},
          {"predicate": {"custom_model_data":628327}, "model": "wishlist:item/bowl_of_red_liquid"},
          {"predicate": {"custom_model_data":628328}, "model": "wishlist:item/bowl_of_brown_liquid"},
          {"predicate": {"custom_model_data":628329}, "model": "wishlist:item/bowl_of_black_liquid"},
          {"predicate": {"custom_model_data":628330}, "model": "wishlist:item/bowl_of_white_stuff"},
          {"predicate": {"custom_model_data":628331}, "model": "wishlist:item/bowl_of_pale_stuff"},
          {"predicate": {"custom_model_data":628332}, "model": "wishlist:item/bowl_of_orange_stuff"},
          {"predicate": {"custom_model_data":628333}, "model": "wishlist:item/bowl_of_red_stuff"},
          {"predicate": {"custom_model_data":628334}, "model": "wishlist:item/bowl_of_brown_stuff"},
          {"predicate": {"custom_model_data":628335}, "model": "wishlist:item/bowl_of_black_stuff"},
          {"predicate": {"custom_model_data":628336}, "model": "wishlist:item/bowl_of_mess"},
          {"predicate": {"custom_model_data":628337}, "model": "wishlist:item/burger"},
          {"predicate": {"custom_model_data":628338}, "model": "wishlist:item/cheeseburger"},
          {"predicate": {"custom_model_data":628339}, "model": "wishlist:item/pizza_slice"},
          {"predicate": {"custom_model_data":628340}, "model": "wishlist:item/waffle"},
          {"predicate": {"custom_model_data":628341}, "model": "grabeltone:item/baguette"},
          {"predicate": {"custom_model_data":628342}, "model": "grabeltone:item/bagel"},
          {"predicate": {"custom_model_data":628343}, "model": "grabeltone:item/flatbread"},
          {"predicate": {"custom_model_data":628344}, "model": "grabeltone:item/rupjmaize"},
          {"predicate": {"custom_model_data":628345}, "model": "grabeltone:item/pretzel"},
          {"predicate": {"custom_model_data":628346}, "model": "grabeltone:item/hardtack"},
          {"predicate": {"custom_model_data":628347}, "model": "grabeltone:item/mantou"},
          {"predicate": {"custom_model_data":628348}, "model": "grabeltone:item/pandesal"},
          {"predicate": {"custom_model_data":628349}, "model": "grabeltone:item/cornbread"}
  ]
}


