{"values":[
        "minecraft:creeper_head",
        "minecraft:flower_pot",
        "minecraft:piglin_head",
        "minecraft:player_head",
        "minecraft:skeleton_skull",
        "minecraft:wither_skeleton_skull",
        "minecraft:zombie_head",
        "#minecraft:beds"
]}


