# close_iron_e.mcfunction

fill ~15 ~ ~7 ~15 ~3 ~8 iron_trapdoor[facing=west,open=true,waterlogged=false] replace #wishlist:air
fill ~15 ~ ~7 ~15 ~3 ~8 iron_trapdoor[facing=west,open=true,waterlogged=true] replace water
