# close_wood_s.mcfunction

fill ~7 ~ ~15 ~8 ~3 ~15 oak_trapdoor[facing=north,open=true,waterlogged=false] replace #wishlist:air
fill ~7 ~ ~15 ~8 ~3 ~15 oak_trapdoor[facing=north,open=true,waterlogged=true] replace water

