# close_iron_w.mcfunction

fill ~ ~ ~7 ~ ~3 ~8 iron_trapdoor[facing=east,open=true,waterlogged=false] replace #wishlist:air
fill ~ ~ ~7 ~ ~3 ~8 iron_trapdoor[facing=east,open=true,waterlogged=true] replace water

