# close_wood_n.mcfunction

fill ~7 ~ ~ ~8 ~3 ~ oak_trapdoor[facing=south,open=true,waterlogged=false] replace #wishlist:air
fill ~7 ~ ~ ~8 ~3 ~ oak_trapdoor[facing=south,open=true,waterlogged=true] replace water

