# close_wood_e.mcfunction

fill ~15 ~ ~7 ~15 ~3 ~8 oak_trapdoor[facing=west,open=true,waterlogged=false] replace #wishlist:air
fill ~15 ~ ~7 ~15 ~3 ~8 oak_trapdoor[facing=west,open=true,waterlogged=true] replace water
