# setup_warden.mcfunction

data merge entity @s \
  { \
    Brain:{ \
      memories:{ \
        "minecraft:dig_cooldown":{ \
          value:{}, \
          ttl:1200L \
        } \
      } \
    } \
  }
function dungeon_tools:setup_mob

