{
  "temperature": 0.8,
  "downfall": 0.4,
  "has_precipitation": true,
  "temperature_modifier": "none",
  "effects": {
    "sky_color": 7254527,
    "fog_color": 6840176,
    "water_color": 4159204,
    "water_fog_color": 329011,
    "ambient_sound": "minecraft:ambient.basalt_deltas.loop",
    "mood_sound": {
      "sound": "minecraft:ambient.basalt_deltas.mood",
      "tick_delay": 6000,
      "block_search_extent": 8,
      "offset": 2
    },
    "additions_sound": {
      "sound": "minecraft:ambient.basalt_deltas.additions",
      "tick_chance": 0.0111
    },
    "music": {
      "sound": "wishlist:music.dungeon",
      "min_delay": 600,
      "max_delay": 1200,
      "replace_current_music": true
    }
  },
  "spawners": {},
  "spawn_costs": {},
  "carvers": {},
  "features": []
}

