# face_player.mcfunction - face nearest player
execute facing entity @p[gamemode=!spectator] feet run tp @s ~ ~ ~ ~ ~
function look_alive:clamp_angle
advancement grant @p[gamemode=!spectator] only wishlist:interact_with_npc


