{
  "criteria": {
    "example": {
      "trigger": "minecraft:player_interacted_with_entity",
      "conditions": {
        "item": {
          "items": [
            "minecraft:map"
          ]
        },
        "entity": {
          "tag": "wishlist:item_frames",
          "nbt": "{Item:{id:\"minecraft:filled_map\"}}"
        }
      }
    }
  },
  "rewards": {
    "function": "free_maps:copy"
  }
}
